…
``` r
osmdata::available_tags("place")
```

```         
# A tibble: 30 × 2
   Key   Value      
   <chr> <chr>      
 1 place allotments 
 2 place archipelago
 3 place borough    
 4 place city       
 5 place city_block 
 6 place continent  
 7 place country    
 8 place county     
 9 place district   
10 place farm       
# ℹ 20 more rows
```
…
